0.2 (19/02/2016)
================
- Correcciones revisión 1.

0.1 (17/12/2015)
================
- Funcionalidades básicas (abrir, guardar, diligenciar, exportar y  ayuda) y diseño gráfico de interfaz 
